1;255.0;260.0;neutro
2;290.0;295.0;neutro
3;295.0;300.0;neutro
4;300.0;305.0;neutro
5;320.0;325.0;neutro
6;340.0;345.0;neutro
7;355.0;360.0;neutro
8;360.0;365.0;neutro
9;365.0;370.0;neutro
10;370.0;375.0;neutro
11;375.0;380.0;raiva
12;380.0;385.0;raiva
13;410.0;415.0;neutro
14;415.0;420.0;neutro
15;425.0;430.0;neutro
16;465.0;470.0;neutro
17;475.0;480.0;neutro
18;480.0;485.0;neutro
19;495.0;500.0;neutro
20;500.0;505.0;neutro
21;505.0;510.0;neutro
22;510.0;515.0;neutro
23;515.0;520.0;neutro
24;525.0;530.0;neutro
25;530.0;535.0;neutro
26;535.0;540.0;neutro
27;650.0;655.0;neutro
28;655.0;660.0;neutro
29;660.0;665.0;neutro
30;665.0;670.0;raiva
31;715.0;720.0;raiva
32;720.0;725.0;raiva
33;725.0;730.0;raiva
34;730.0;735.0;raiva
35;735.0;740.0;raiva
36;740.0;745.0;raiva
37;750.0;755.0;outros
38;830.0;835.0;neutro
39;840.0;845.0;neutro
40;950.0;955.0;neutro
41;955.0;960.0;neutro
42;960.0;965.0;neutro
43;965.0;970.0;neutro
44;1010.0;1015.0;neutro
45;1025.0;1030.0;neutro
46;1190.0;1195.0;neutro
47;1195.0;1200.0;neutro
48;1365.0;1370.0;felicidade
49;1370.0;1375.0;felicidade
50;1380.0;1385.0;felicidade
51;1420.0;1425.0;raiva
52;1435.0;1440.0;neutro
53;1440.0;1445.0;raiva
54;1500.0;1505.0;neutro
55;1505.0;1510.0;neutro
56;1510.0;1515.0;neutro
57;1965.0;1970.0;neutro
58;1970.0;1975.0;neutro
59;1975.0;1980.0;neutro
60;2000.0;2005.0;neutro
61;2050.0;2055.0;neutro
62;2055.0;2060.0;outros
63;2095.0;2100.0;raiva
64;2100.0;2105.0;raiva
65;2105.0;2110.0;raiva
66;2110.0;2115.0;raiva
67;2115.0;2120.0;raiva
68;2120.0;2125.0;raiva
69;2170.0;2175.0;neutro
70;2190.0;2195.0;neutro
71;2195.0;2200.0;neutro
72;2250.0;2255.0;neutro
73;2260.0;2265.0;outros
74;2270.0;2275.0;neutro
75;2370.0;2375.0;raiva
76;2375.0;2380.0;neutro
77;2380.0;2385.0;neutro
78;2395.0;2400.0;neutro
79;2400.0;2405.0;neutro
80;2405.0;2410.0;neutro
81;2410.0;2415.0;neutro
82;2420.0;2425.0;neutro
83;2430.0;2435.0;neutro
84;2435.0;2440.0;neutro
85;2530.0;2535.0;neutro
86;2610.0;2615.0;neutro
87;2615.0;2620.0;neutro
88;2620.0;2625.0;neutro
89;2625.0;2630.0;neutro
90;2630.0;2635.0;neutro
91;2635.0;2640.0;neutro
92;2640.0;2645.0;neutro
93;2645.0;2650.0;neutro
94;2650.0;2655.0;neutro
95;2655.0;2660.0;neutro
96;2660.0;2665.0;neutro
97;2665.0;2670.0;neutro
98;2670.0;2675.0;neutro
99;2675.0;2680.0;neutro
100;2680.0;2685.0;neutro
101;2685.0;2690.0;neutro
102;2690.0;2695.0;neutro
103;2695.0;2700.0;neutro
104;2700.0;2705.0;neutro
105;2705.0;2710.0;neutro
106;2710.0;2715.0;neutro
107;2715.0;2720.0;neutro
108;2720.0;2725.0;neutro
109;2725.0;2730.0;neutro
110;2730.0;2735.0;neutro
111;2760.0;2765.0;neutro
112;2765.0;2770.0;neutro
113;2775.0;2780.0;neutro
114;2780.0;2785.0;neutro
115;2785.0;2790.0;neutro
116;2910.0;2915.0;neutro
117;2915.0;2920.0;neutro
118;2930.0;2935.0;neutro
119;2965.0;2970.0;neutro
120;2970.0;2975.0;neutro
121;2975.0;2980.0;neutro
122;2985.0;2990.0;neutro
123;3010.0;3015.0;neutro
124;3015.0;3020.0;neutro
125;3020.0;3025.0;neutro
126;3120.0;3125.0;neutro
127;3125.0;3130.0;neutro
128;3130.0;3135.0;neutro
129;3135.0;3140.0;neutro
130;3240.0;3245.0;felicidade
131;3245.0;3250.0;neutro
132;3250.0;3255.0;neutro
133;3265.0;3270.0;neutro
134;3380.0;3385.0;neutro
135;3385.0;3390.0;neutro
136;3570.0;3575.0;felicidade
137;3575.0;3580.0;felicidade
138;3580.0;3585.0;neutro
139;3585.0;3590.0;neutro
140;3590.0;3595.0;neutro
141;3595.0;3600.0;neutro
142;3885.0;3890.0;neutro
143;3890.0;3895.0;neutro
144;3895.0;3900.0;neutro
145;3900.0;3905.0;neutro
146;3905.0;3910.0;neutro
147;3915.0;3920.0;neutro
148;4110.0;4115.0;neutro
149;4115.0;4120.0;neutro
150;4125.0;4130.0;neutro
151;4130.0;4135.0;neutro
152;4135.0;4140.0;outros
153;4320.0;4325.0;neutro
154;4325.0;4330.0;neutro
155;4330.0;4335.0;felicidade
156;4335.0;4340.0;neutro
157;4365.0;4370.0;neutro
158;4370.0;4375.0;neutro
159;4375.0;4380.0;neutro
160;4565.0;4570.0;raiva
161;4575.0;4580.0;neutro
162;4580.0;4585.0;neutro
163;4910.0;4915.0;neutro
164;4975.0;4980.0;raiva
165;5015.0;5020.0;raiva
166;5020.0;5025.0;raiva
167;5135.0;5140.0;neutro
168;5140.0;5145.0;neutro
169;5145.0;5150.0;neutro
170;5170.0;5175.0;neutro
171;5185.0;5190.0;felicidade
172;5190.0;5195.0;felicidade
173;5315.0;5320.0;neutro
174;5320.0;5325.0;neutro
175;5470.0;5475.0;raiva
176;5475.0;5480.0;raiva
177;5500.0;5505.0;neutro
178;5505.0;5510.0;neutro
179;5595.0;5600.0;felicidade
180;5600.0;5605.0;felicidade
181;5605.0;5610.0;neutro
182;5720.0;5725.0;felicidade
183;5725.0;5730.0;felicidade
184;5880.0;5885.0;neutro
185;5890.0;5895.0;neutro
186;5960.0;5965.0;neutro
187;5965.0;5970.0;neutro
188;6190.0;6195.0;neutro
189;6210.0;6215.0;neutro
190;6240.0;6245.0;neutro
191;6470.0;6475.0;neutro
192;6590.0;6595.0;neutro
193;6595.0;6600.0;neutro
194;6600.0;6605.0;neutro
195;6605.0;6610.0;neutro
196;6620.0;6625.0;neutro
197;6625.0;6630.0;neutro
198;6750.0;6755.0;neutro