0.9666666666666667
0.9666666666666667
0.9166666666666666
0.9666666666666667
0.9166666666666666
0.9166666666666666
0.9333333333333333
0.9333333333333333
0.95
0.95
0.95
0.9666666666666667
0.95
0.9333333333333333
0.9333333333333333
0.9333333333333333
0.9833333333333333
0.95
0.9
0.9
0.9166666666666666
0.9333333333333333
0.95
0.95
0.9166666666666666
0.9333333333333333
0.95
0.9666666666666667
0.9166666666666666
0.95
0.9333333333333333
0.9166666666666666
0.9166666666666666
0.9166666666666666
0.9
0.9166666666666666
0.95
1.0
0.9333333333333333
0.95
0.9
0.95
0.9833333333333333
0.9333333333333333
0.9666666666666667
0.95
0.9333333333333333
0.9166666666666666
0.95
0.9333333333333333
0.95
0.9166666666666666
0.95
0.9166666666666666
0.9833333333333333
0.95
0.95
0.9833333333333333
0.9166666666666666
0.9833333333333333
0.9333333333333333
0.9666666666666667
0.9666666666666667
0.95
0.95
0.9333333333333333
0.9333333333333333
0.9333333333333333
0.9166666666666666
0.9333333333333333
0.8833333333333333
0.9166666666666666
0.9166666666666666
0.95
0.9
0.95
0.9333333333333333
0.95
0.9166666666666666
0.95
0.9666666666666667
0.9166666666666666
0.9333333333333333
0.9666666666666667
0.9
0.9166666666666666
0.9
0.9833333333333333
0.9333333333333333
0.95
0.9833333333333333
0.9333333333333333
0.9
0.95
0.9666666666666667
0.9333333333333333
0.9333333333333333
0.9333333333333333
0.95
0.9333333333333333
